<?xml version="1.0" encoding="UTF-8"?>
<svg width="23px" height="19px" viewBox="0 0 23 19" version="1.1" xmlns="http://www.w3.org/2000/svg" xmlns:xlink="http://www.w3.org/1999/xlink">
    <!-- Generator: Sketch 58 (84663) - https://sketch.com -->
    <title>distance-sensors</title>
    <desc>Created with Sketch.</desc>
    <defs>
        <linearGradient x1="100%" y1="19.3761815%" x2="0%" y2="80.6238185%" id="linearGradient-1">
            <stop stop-color="#00B4A6" offset="0%"></stop>
            <stop stop-color="#12DFCF" offset="45.0063345%"></stop>
            <stop stop-color="#01665E" offset="100%"></stop>
        </linearGradient>
    </defs>
    <g id="v5" stroke="none" stroke-width="1" fill="none" fill-rule="evenodd">
        <g id="Onboarding2.4" transform="translate(-32.000000, -361.000000)">
            <g id="distance-sensors" transform="translate(30.000000, 357.500000)">
                <path d="M13.5,4 L5.45,4 C3.541,4 2,5.5075 2,7.375 L2,16.375 C2,18.2425 3.541,19.75 5.45,19.75 L4.3,20.875 L4.3,22 L5.45,22 L7.75,19.71625 L10.05,19.75 L10.05,14.125 L4.3,14.125 L4.3,6.2275 L14.65,6.25 L14.65,8.5 L16.95,8.5 L16.95,7.375 C16.95,5.5075 15.409,4 13.5,4 Z M5.45,15.25 C6.0825,15.25 6.6,15.75625 6.6,16.375 C6.6,16.99375 6.0825,17.5 5.45,17.5 C4.8175,17.5 4.3,16.99375 4.3,16.375 C4.3,15.75625 4.8175,15.25 5.45,15.25 Z M23.3555,10.3675 C23.1945,9.9175 22.7575,9.625 22.24,9.625 L13.9715,9.625 C13.4425,9.625 13.017,9.9175 12.8445,10.3675 L11.2,14.99125 L11.2115,21.19 C11.2115,21.6175 11.568,22 12.005,22 L12.718,22 C13.155,22 13.5,21.5725 13.5,21.145 L13.5,19.75 L22.7,19.75 L22.7,21.145 C22.7,21.5725 23.0565,22 23.4935,22 L24.195,22 C24.632,22 24.9885,21.6175 24.9885,21.19 L25,19.64875 L25,14.99125 L23.3555,10.3675 L23.3555,10.3675 Z M13.9715,10.75 L22.24,10.75 L23.4245,14.125 L12.787,14.125 L13.9715,10.75 Z M13.5,17.5 C12.8675,17.5 12.35,16.99375 12.35,16.375 C12.35,15.75625 12.8675,15.25 13.5,15.25 C14.1325,15.25 14.65,15.75625 14.65,16.375 C14.65,16.99375 14.1325,17.5 13.5,17.5 Z M22.7,17.5 C22.0675,17.5 21.55,16.99375 21.55,16.375 C21.55,15.75625 22.0675,15.25 22.7,15.25 C23.3325,15.25 23.85,15.75625 23.85,16.375 C23.85,16.99375 23.3325,17.5 22.7,17.5 Z" id="Shape" fill="url(#linearGradient-1)" fill-rule="nonzero"></path>
                <polygon id="Path" points="0 0 27 0 27 27 0 27"></polygon>
            </g>
        </g>
    </g>
</svg>