{
  "studies": [
    {
      "id": "study1",
      "name": "Your Daily Travel",
      "description": "hey now",
      "icon": "studies/study_distance.png",
      "geo": true,
      "apps": false,
      "activities": false,
      "environment": false,
      "event": false
    }

  ]
}
